<?xml version="1.0" encoding="UTF-8" standalone="no"?>
<!DOCTYPE svg PUBLIC "-//W3C//DTD SVG 1.1//EN"
 "http://www.w3.org/Graphics/SVG/1.1/DTD/svg11.dtd">
<!-- Generated by graphviz version 2.36.0 (20140111.2315)
 -->
<!-- Title: controllers_diagram Pages: 1 -->
<svg width="1435pt" height="1397pt"
 viewBox="0.00 0.00 1435.00 1397.00" xmlns="http://www.w3.org/2000/svg" xmlns:xlink="http://www.w3.org/1999/xlink">
<g id="graph0" class="graph" transform="scale(1 1) rotate(0) translate(4 1393)">
<title>controllers_diagram</title>
<polygon fill="none" stroke="none" points="-4,4 -4,-1393 1431,-1393 1431,4 -4,4"/>
<!-- _diagram_info -->
<g id="node1" class="node"><title>_diagram_info</title>
<text text-anchor="start" x="882" y="-196.6" font-family="Times,serif" font-size="13.00">Controllers diagram</text>
<text text-anchor="start" x="882" y="-182.6" font-family="Times,serif" font-size="13.00">Date: Aug 21 2016 &#45; 12:52</text>
<text text-anchor="start" x="882" y="-168.6" font-family="Times,serif" font-size="13.00">Migration version: 20160815192108</text>
<text text-anchor="start" x="882" y="-154.6" font-family="Times,serif" font-size="13.00">Generated by RailRoady 1.5.1</text>
<text text-anchor="start" x="882" y="-140.6" font-family="Times,serif" font-size="13.00">http://railroady.prestonlee.com</text>
</g>
<!-- EnquiriesController -->
<g id="node2" class="node"><title>EnquiriesController</title>
<path fill="none" stroke="black" d="M905,-1064.5C905,-1064.5 1005,-1064.5 1005,-1064.5 1011,-1064.5 1017,-1070.5 1017,-1076.5 1017,-1076.5 1017,-1265.5 1017,-1265.5 1017,-1271.5 1011,-1277.5 1005,-1277.5 1005,-1277.5 905,-1277.5 905,-1277.5 899,-1277.5 893,-1271.5 893,-1265.5 893,-1265.5 893,-1076.5 893,-1076.5 893,-1070.5 899,-1064.5 905,-1064.5"/>
<text text-anchor="middle" x="955" y="-1262.3" font-family="Times,serif" font-size="14.00">EnquiriesController</text>
<polyline fill="none" stroke="black" points="893,-1254.5 1017,-1254.5 "/>
<text text-anchor="start" x="901" y="-1239.3" font-family="Times,serif" font-size="14.00">create</text>
<text text-anchor="start" x="901" y="-1224.3" font-family="Times,serif" font-size="14.00">destroy</text>
<text text-anchor="start" x="901" y="-1209.3" font-family="Times,serif" font-size="14.00">edit</text>
<text text-anchor="start" x="901" y="-1194.3" font-family="Times,serif" font-size="14.00">index</text>
<text text-anchor="start" x="901" y="-1179.3" font-family="Times,serif" font-size="14.00">new</text>
<text text-anchor="start" x="901" y="-1164.3" font-family="Times,serif" font-size="14.00">show</text>
<text text-anchor="start" x="901" y="-1149.3" font-family="Times,serif" font-size="14.00">update</text>
<polyline fill="none" stroke="black" points="893,-1141.5 1017,-1141.5 "/>
<polyline fill="none" stroke="black" points="893,-1117.5 1017,-1117.5 "/>
<text text-anchor="start" x="901" y="-1102.3" font-family="Times,serif" font-size="14.00">_layout</text>
<text text-anchor="start" x="901" y="-1087.3" font-family="Times,serif" font-size="14.00">enquiry_params</text>
<text text-anchor="start" x="901" y="-1072.3" font-family="Times,serif" font-size="14.00">set_enquiry</text>
</g>
<!-- PresentationsController -->
<g id="node3" class="node"><title>PresentationsController</title>
<path fill="none" stroke="black" d="M449,-57.5C449,-57.5 569,-57.5 569,-57.5 575,-57.5 581,-63.5 581,-69.5 581,-69.5 581,-198.5 581,-198.5 581,-204.5 575,-210.5 569,-210.5 569,-210.5 449,-210.5 449,-210.5 443,-210.5 437,-204.5 437,-198.5 437,-198.5 437,-69.5 437,-69.5 437,-63.5 443,-57.5 449,-57.5"/>
<text text-anchor="middle" x="509" y="-195.3" font-family="Times,serif" font-size="14.00">PresentationsController</text>
<polyline fill="none" stroke="black" points="437,-187.5 581,-187.5 "/>
<text text-anchor="start" x="445" y="-172.3" font-family="Times,serif" font-size="14.00">show</text>
<text text-anchor="start" x="445" y="-157.3" font-family="Times,serif" font-size="14.00">slide_path</text>
<polyline fill="none" stroke="black" points="437,-149.5 581,-149.5 "/>
<polyline fill="none" stroke="black" points="437,-125.5 581,-125.5 "/>
<text text-anchor="start" x="445" y="-110.3" font-family="Times,serif" font-size="14.00">_layout</text>
<text text-anchor="start" x="445" y="-95.3" font-family="Times,serif" font-size="14.00">require_authentication</text>
<text text-anchor="start" x="445" y="-80.3" font-family="Times,serif" font-size="14.00">reset_session</text>
<text text-anchor="start" x="445" y="-65.3" font-family="Times,serif" font-size="14.00">set_presentation</text>
</g>
<!-- ApiController -->
<g id="node4" class="node"><title>ApiController</title>
<path fill="none" stroke="black" d="M12,-969.5C12,-969.5 80,-969.5 80,-969.5 86,-969.5 92,-975.5 92,-981.5 92,-981.5 92,-1051.5 92,-1051.5 92,-1057.5 86,-1063.5 80,-1063.5 80,-1063.5 12,-1063.5 12,-1063.5 6,-1063.5 -1.13687e-13,-1057.5 -1.13687e-13,-1051.5 -1.13687e-13,-1051.5 -1.13687e-13,-981.5 -1.13687e-13,-981.5 -1.13687e-13,-975.5 6,-969.5 12,-969.5"/>
<text text-anchor="middle" x="46" y="-1048.3" font-family="Times,serif" font-size="14.00">ApiController</text>
<polyline fill="none" stroke="black" points="-1.13687e-13,-1040.5 92,-1040.5 "/>
<polyline fill="none" stroke="black" points="-1.13687e-13,-1016.5 92,-1016.5 "/>
<polyline fill="none" stroke="black" points="-1.13687e-13,-992.5 92,-992.5 "/>
<text text-anchor="start" x="8" y="-977.3" font-family="Times,serif" font-size="14.00">_layout</text>
</g>
<!-- ApplicationController -->
<g id="node5" class="node"><title>ApplicationController</title>
<path fill="none" stroke="black" d="M145,-912.5C145,-912.5 304,-912.5 304,-912.5 310,-912.5 316,-918.5 316,-924.5 316,-924.5 316,-1023.5 316,-1023.5 316,-1029.5 310,-1035.5 304,-1035.5 304,-1035.5 145,-1035.5 145,-1035.5 139,-1035.5 133,-1029.5 133,-1023.5 133,-1023.5 133,-924.5 133,-924.5 133,-918.5 139,-912.5 145,-912.5"/>
<text text-anchor="middle" x="224.5" y="-1020.3" font-family="Times,serif" font-size="14.00">ApplicationController</text>
<polyline fill="none" stroke="black" points="133,-1012.5 316,-1012.5 "/>
<text text-anchor="start" x="141" y="-997.3" font-family="Times,serif" font-size="14.00">authenticated_user_redirection</text>
<text text-anchor="start" x="141" y="-982.3" font-family="Times,serif" font-size="14.00">no_subdomain_if_anonymous</text>
<text text-anchor="start" x="141" y="-967.3" font-family="Times,serif" font-size="14.00">subdomain_redirection</text>
<polyline fill="none" stroke="black" points="133,-959.5 316,-959.5 "/>
<polyline fill="none" stroke="black" points="133,-935.5 316,-935.5 "/>
<text text-anchor="start" x="141" y="-920.3" font-family="Times,serif" font-size="14.00">_layout</text>
</g>
<!-- FacultyController -->
<g id="node6" class="node"><title>FacultyController</title>
<path fill="none" stroke="black" d="M50,-266.5C50,-266.5 139,-266.5 139,-266.5 145,-266.5 151,-272.5 151,-278.5 151,-278.5 151,-378.5 151,-378.5 151,-384.5 145,-390.5 139,-390.5 139,-390.5 50,-390.5 50,-390.5 44,-390.5 38,-384.5 38,-378.5 38,-378.5 38,-278.5 38,-278.5 38,-272.5 44,-266.5 50,-266.5"/>
<text text-anchor="middle" x="94.5" y="-375.3" font-family="Times,serif" font-size="14.00">FacultyController</text>
<polyline fill="none" stroke="black" points="38,-367.5 151,-367.5 "/>
<polyline fill="none" stroke="black" points="38,-343.5 151,-343.5 "/>
<polyline fill="none" stroke="black" points="38,-319.5 151,-319.5 "/>
<text text-anchor="start" x="46" y="-304.3" font-family="Times,serif" font-size="14.00">_layout</text>
<text text-anchor="start" x="46" y="-289.3" font-family="Times,serif" font-size="14.00">require_faculty</text>
<text text-anchor="start" x="46" y="-274.3" font-family="Times,serif" font-size="14.00">set_school</text>
</g>
<!-- Faculty::LessonsController -->
<g id="node7" class="node"><title>Faculty::LessonsController</title>
<path fill="none" stroke="black" d="M487,-1159.5C487,-1159.5 627,-1159.5 627,-1159.5 633,-1159.5 639,-1165.5 639,-1171.5 639,-1171.5 639,-1300.5 639,-1300.5 639,-1306.5 633,-1312.5 627,-1312.5 627,-1312.5 487,-1312.5 487,-1312.5 481,-1312.5 475,-1306.5 475,-1300.5 475,-1300.5 475,-1171.5 475,-1171.5 475,-1165.5 481,-1159.5 487,-1159.5"/>
<text text-anchor="middle" x="557" y="-1297.3" font-family="Times,serif" font-size="14.00">Faculty::LessonsController</text>
<polyline fill="none" stroke="black" points="475,-1289.5 639,-1289.5 "/>
<text text-anchor="start" x="483" y="-1274.3" font-family="Times,serif" font-size="14.00">mark</text>
<text text-anchor="start" x="483" y="-1259.3" font-family="Times,serif" font-size="14.00">show</text>
<text text-anchor="start" x="483" y="-1244.3" font-family="Times,serif" font-size="14.00">update_marks</text>
<polyline fill="none" stroke="black" points="475,-1236.5 639,-1236.5 "/>
<polyline fill="none" stroke="black" points="475,-1212.5 639,-1212.5 "/>
<text text-anchor="start" x="483" y="-1197.3" font-family="Times,serif" font-size="14.00">_layout</text>
<text text-anchor="start" x="483" y="-1182.3" font-family="Times,serif" font-size="14.00">lesson_params</text>
<text text-anchor="start" x="483" y="-1167.3" font-family="Times,serif" font-size="14.00">set_lesson</text>
</g>
<!-- Faculty::CoursesController -->
<g id="node8" class="node"><title>Faculty::CoursesController</title>
<path fill="none" stroke="black" d="M297,-646.5C297,-646.5 437,-646.5 437,-646.5 443,-646.5 449,-652.5 449,-658.5 449,-658.5 449,-847.5 449,-847.5 449,-853.5 443,-859.5 437,-859.5 437,-859.5 297,-859.5 297,-859.5 291,-859.5 285,-853.5 285,-847.5 285,-847.5 285,-658.5 285,-658.5 285,-652.5 291,-646.5 297,-646.5"/>
<text text-anchor="middle" x="367" y="-844.3" font-family="Times,serif" font-size="14.00">Faculty::CoursesController</text>
<polyline fill="none" stroke="black" points="285,-836.5 449,-836.5 "/>
<text text-anchor="start" x="293" y="-821.3" font-family="Times,serif" font-size="14.00">create</text>
<text text-anchor="start" x="293" y="-806.3" font-family="Times,serif" font-size="14.00">edit</text>
<text text-anchor="start" x="293" y="-791.3" font-family="Times,serif" font-size="14.00">index</text>
<text text-anchor="start" x="293" y="-776.3" font-family="Times,serif" font-size="14.00">new</text>
<text text-anchor="start" x="293" y="-761.3" font-family="Times,serif" font-size="14.00">select_years</text>
<text text-anchor="start" x="293" y="-746.3" font-family="Times,serif" font-size="14.00">show</text>
<text text-anchor="start" x="293" y="-731.3" font-family="Times,serif" font-size="14.00">update</text>
<polyline fill="none" stroke="black" points="285,-723.5 449,-723.5 "/>
<polyline fill="none" stroke="black" points="285,-699.5 449,-699.5 "/>
<text text-anchor="start" x="293" y="-684.3" font-family="Times,serif" font-size="14.00">_layout</text>
<text text-anchor="start" x="293" y="-669.3" font-family="Times,serif" font-size="14.00">course_params</text>
<text text-anchor="start" x="293" y="-654.3" font-family="Times,serif" font-size="14.00">set_course</text>
</g>
<!-- Faculty::ReportsController -->
<g id="node9" class="node"><title>Faculty::ReportsController</title>
<path fill="none" stroke="black" d="M31,-1102.5C31,-1102.5 169,-1102.5 169,-1102.5 175,-1102.5 181,-1108.5 181,-1114.5 181,-1114.5 181,-1183.5 181,-1183.5 181,-1189.5 175,-1195.5 169,-1195.5 169,-1195.5 31,-1195.5 31,-1195.5 25,-1195.5 19,-1189.5 19,-1183.5 19,-1183.5 19,-1114.5 19,-1114.5 19,-1108.5 25,-1102.5 31,-1102.5"/>
<text text-anchor="middle" x="100" y="-1180.3" font-family="Times,serif" font-size="14.00">Faculty::ReportsController</text>
<polyline fill="none" stroke="black" points="19,-1172.5 181,-1172.5 "/>
<text text-anchor="start" x="27" y="-1157.3" font-family="Times,serif" font-size="14.00">index</text>
<polyline fill="none" stroke="black" points="19,-1149.5 181,-1149.5 "/>
<polyline fill="none" stroke="black" points="19,-1125.5 181,-1125.5 "/>
<text text-anchor="start" x="27" y="-1110.3" font-family="Times,serif" font-size="14.00">_layout</text>
</g>
<!-- Faculty::KlassesController -->
<g id="node10" class="node"><title>Faculty::KlassesController</title>
<path fill="none" stroke="black" d="M316,-399.5C316,-399.5 453,-399.5 453,-399.5 459,-399.5 465,-405.5 465,-411.5 465,-411.5 465,-600.5 465,-600.5 465,-606.5 459,-612.5 453,-612.5 453,-612.5 316,-612.5 316,-612.5 310,-612.5 304,-606.5 304,-600.5 304,-600.5 304,-411.5 304,-411.5 304,-405.5 310,-399.5 316,-399.5"/>
<text text-anchor="middle" x="384.5" y="-597.3" font-family="Times,serif" font-size="14.00">Faculty::KlassesController</text>
<polyline fill="none" stroke="black" points="304,-589.5 465,-589.5 "/>
<text text-anchor="start" x="312" y="-574.3" font-family="Times,serif" font-size="14.00">create</text>
<text text-anchor="start" x="312" y="-559.3" font-family="Times,serif" font-size="14.00">edit</text>
<text text-anchor="start" x="312" y="-544.3" font-family="Times,serif" font-size="14.00">index</text>
<text text-anchor="start" x="312" y="-529.3" font-family="Times,serif" font-size="14.00">new</text>
<text text-anchor="start" x="312" y="-514.3" font-family="Times,serif" font-size="14.00">show</text>
<text text-anchor="start" x="312" y="-499.3" font-family="Times,serif" font-size="14.00">update</text>
<polyline fill="none" stroke="black" points="304,-491.5 465,-491.5 "/>
<polyline fill="none" stroke="black" points="304,-467.5 465,-467.5 "/>
<text text-anchor="start" x="312" y="-452.3" font-family="Times,serif" font-size="14.00">_layout</text>
<text text-anchor="start" x="312" y="-437.3" font-family="Times,serif" font-size="14.00">klass_params</text>
<text text-anchor="start" x="312" y="-422.3" font-family="Times,serif" font-size="14.00">set_class</text>
<text text-anchor="start" x="312" y="-407.3" font-family="Times,serif" font-size="14.00">verify_administrator</text>
</g>
<!-- Faculty::PupilsController -->
<g id="node11" class="node"><title>Faculty::PupilsController</title>
<path fill="none" stroke="black" d="M506,-247.5C506,-247.5 636,-247.5 636,-247.5 642,-247.5 648,-253.5 648,-259.5 648,-259.5 648,-478.5 648,-478.5 648,-484.5 642,-490.5 636,-490.5 636,-490.5 506,-490.5 506,-490.5 500,-490.5 494,-484.5 494,-478.5 494,-478.5 494,-259.5 494,-259.5 494,-253.5 500,-247.5 506,-247.5"/>
<text text-anchor="middle" x="571" y="-475.3" font-family="Times,serif" font-size="14.00">Faculty::PupilsController</text>
<polyline fill="none" stroke="black" points="494,-467.5 648,-467.5 "/>
<text text-anchor="start" x="502" y="-452.3" font-family="Times,serif" font-size="14.00">add_to_class</text>
<text text-anchor="start" x="502" y="-437.3" font-family="Times,serif" font-size="14.00">create</text>
<text text-anchor="start" x="502" y="-422.3" font-family="Times,serif" font-size="14.00">edit</text>
<text text-anchor="start" x="502" y="-407.3" font-family="Times,serif" font-size="14.00">index</text>
<text text-anchor="start" x="502" y="-392.3" font-family="Times,serif" font-size="14.00">leave_class</text>
<text text-anchor="start" x="502" y="-377.3" font-family="Times,serif" font-size="14.00">new</text>
<text text-anchor="start" x="502" y="-362.3" font-family="Times,serif" font-size="14.00">show</text>
<text text-anchor="start" x="502" y="-347.3" font-family="Times,serif" font-size="14.00">update</text>
<polyline fill="none" stroke="black" points="494,-339.5 648,-339.5 "/>
<polyline fill="none" stroke="black" points="494,-315.5 648,-315.5 "/>
<text text-anchor="start" x="502" y="-300.3" font-family="Times,serif" font-size="14.00">_layout</text>
<text text-anchor="start" x="502" y="-285.3" font-family="Times,serif" font-size="14.00">pupil_params</text>
<text text-anchor="start" x="502" y="-270.3" font-family="Times,serif" font-size="14.00">set_pupil</text>
<text text-anchor="start" x="502" y="-255.3" font-family="Times,serif" font-size="14.00">verify_administrator</text>
</g>
<!-- Faculty::PagesController -->
<g id="node12" class="node"><title>Faculty::PagesController</title>
<path fill="none" stroke="black" d="M1266,-969.5C1266,-969.5 1394,-969.5 1394,-969.5 1400,-969.5 1406,-975.5 1406,-981.5 1406,-981.5 1406,-1065.5 1406,-1065.5 1406,-1071.5 1400,-1077.5 1394,-1077.5 1394,-1077.5 1266,-1077.5 1266,-1077.5 1260,-1077.5 1254,-1071.5 1254,-1065.5 1254,-1065.5 1254,-981.5 1254,-981.5 1254,-975.5 1260,-969.5 1266,-969.5"/>
<text text-anchor="middle" x="1330" y="-1062.3" font-family="Times,serif" font-size="14.00">Faculty::PagesController</text>
<polyline fill="none" stroke="black" points="1254,-1054.5 1406,-1054.5 "/>
<text text-anchor="start" x="1262" y="-1039.3" font-family="Times,serif" font-size="14.00">home</text>
<text text-anchor="start" x="1262" y="-1024.3" font-family="Times,serif" font-size="14.00">settings</text>
<polyline fill="none" stroke="black" points="1254,-1016.5 1406,-1016.5 "/>
<polyline fill="none" stroke="black" points="1254,-992.5 1406,-992.5 "/>
<text text-anchor="start" x="1262" y="-977.3" font-family="Times,serif" font-size="14.00">_layout</text>
</g>
<!-- Faculty::TeachersController -->
<g id="node13" class="node"><title>Faculty::TeachersController</title>
<path fill="none" stroke="black" d="M1038,-247.5C1038,-247.5 1183,-247.5 1183,-247.5 1189,-247.5 1195,-253.5 1195,-259.5 1195,-259.5 1195,-448.5 1195,-448.5 1195,-454.5 1189,-460.5 1183,-460.5 1183,-460.5 1038,-460.5 1038,-460.5 1032,-460.5 1026,-454.5 1026,-448.5 1026,-448.5 1026,-259.5 1026,-259.5 1026,-253.5 1032,-247.5 1038,-247.5"/>
<text text-anchor="middle" x="1110.5" y="-445.3" font-family="Times,serif" font-size="14.00">Faculty::TeachersController</text>
<polyline fill="none" stroke="black" points="1026,-437.5 1195,-437.5 "/>
<text text-anchor="start" x="1034" y="-422.3" font-family="Times,serif" font-size="14.00">create</text>
<text text-anchor="start" x="1034" y="-407.3" font-family="Times,serif" font-size="14.00">edit</text>
<text text-anchor="start" x="1034" y="-392.3" font-family="Times,serif" font-size="14.00">index</text>
<text text-anchor="start" x="1034" y="-377.3" font-family="Times,serif" font-size="14.00">new</text>
<text text-anchor="start" x="1034" y="-362.3" font-family="Times,serif" font-size="14.00">show</text>
<text text-anchor="start" x="1034" y="-347.3" font-family="Times,serif" font-size="14.00">update</text>
<polyline fill="none" stroke="black" points="1026,-339.5 1195,-339.5 "/>
<polyline fill="none" stroke="black" points="1026,-315.5 1195,-315.5 "/>
<text text-anchor="start" x="1034" y="-300.3" font-family="Times,serif" font-size="14.00">_layout</text>
<text text-anchor="start" x="1034" y="-285.3" font-family="Times,serif" font-size="14.00">set_teacher</text>
<text text-anchor="start" x="1034" y="-270.3" font-family="Times,serif" font-size="14.00">teacher_params</text>
<text text-anchor="start" x="1034" y="-255.3" font-family="Times,serif" font-size="14.00">verify_administrator</text>
</g>
<!-- AdminController -->
<g id="node14" class="node"><title>AdminController</title>
<path fill="none" stroke="black" d="M278,-57.5C278,-57.5 392,-57.5 392,-57.5 398,-57.5 404,-63.5 404,-69.5 404,-69.5 404,-154.5 404,-154.5 404,-160.5 398,-166.5 392,-166.5 392,-166.5 278,-166.5 278,-166.5 272,-166.5 266,-160.5 266,-154.5 266,-154.5 266,-69.5 266,-69.5 266,-63.5 272,-57.5 278,-57.5"/>
<text text-anchor="middle" x="335" y="-151.3" font-family="Times,serif" font-size="14.00">AdminController</text>
<polyline fill="none" stroke="black" points="266,-143.5 404,-143.5 "/>
<polyline fill="none" stroke="black" points="266,-119.5 404,-119.5 "/>
<polyline fill="none" stroke="black" points="266,-95.5 404,-95.5 "/>
<text text-anchor="start" x="274" y="-80.3" font-family="Times,serif" font-size="14.00">_layout</text>
<text text-anchor="start" x="274" y="-65.3" font-family="Times,serif" font-size="14.00">require_authentication</text>
</g>
<!-- SessionsController -->
<g id="node15" class="node"><title>SessionsController</title>
<path fill="none" stroke="black" d="M696,-266.5C696,-266.5 866,-266.5 866,-266.5 872,-266.5 878,-272.5 878,-278.5 878,-278.5 878,-421.5 878,-421.5 878,-427.5 872,-433.5 866,-433.5 866,-433.5 696,-433.5 696,-433.5 690,-433.5 684,-427.5 684,-421.5 684,-421.5 684,-278.5 684,-278.5 684,-272.5 690,-266.5 696,-266.5"/>
<text text-anchor="middle" x="781" y="-418.3" font-family="Times,serif" font-size="14.00">SessionsController</text>
<polyline fill="none" stroke="black" points="684,-410.5 878,-410.5 "/>
<text text-anchor="start" x="692" y="-395.3" font-family="Times,serif" font-size="14.00">choose_school</text>
<text text-anchor="start" x="692" y="-380.3" font-family="Times,serif" font-size="14.00">create</text>
<text text-anchor="start" x="692" y="-365.3" font-family="Times,serif" font-size="14.00">new</text>
<text text-anchor="start" x="692" y="-350.3" font-family="Times,serif" font-size="14.00">who_are_you</text>
<polyline fill="none" stroke="black" points="684,-342.5 878,-342.5 "/>
<text text-anchor="start" x="692" y="-327.3" font-family="Times,serif" font-size="14.00">configure_permitted_parameters</text>
<polyline fill="none" stroke="black" points="684,-319.5 878,-319.5 "/>
<text text-anchor="start" x="692" y="-304.3" font-family="Times,serif" font-size="14.00">_layout</text>
<text text-anchor="start" x="692" y="-289.3" font-family="Times,serif" font-size="14.00">no_subdomain</text>
<text text-anchor="start" x="692" y="-274.3" font-family="Times,serif" font-size="14.00">validate_subdomain</text>
</g>
<!-- PagesController -->
<g id="node16" class="node"><title>PagesController</title>
<path fill="none" stroke="black" d="M164,-418.5C164,-418.5 250,-418.5 250,-418.5 256,-418.5 262,-424.5 262,-430.5 262,-430.5 262,-604.5 262,-604.5 262,-610.5 256,-616.5 250,-616.5 250,-616.5 164,-616.5 164,-616.5 158,-616.5 152,-610.5 152,-604.5 152,-604.5 152,-430.5 152,-430.5 152,-424.5 158,-418.5 164,-418.5"/>
<text text-anchor="middle" x="207" y="-601.3" font-family="Times,serif" font-size="14.00">PagesController</text>
<polyline fill="none" stroke="black" points="152,-593.5 262,-593.5 "/>
<text text-anchor="start" x="160" y="-578.3" font-family="Times,serif" font-size="14.00">blogs</text>
<text text-anchor="start" x="160" y="-563.3" font-family="Times,serif" font-size="14.00">home</text>
<text text-anchor="start" x="160" y="-548.3" font-family="Times,serif" font-size="14.00">no_school</text>
<text text-anchor="start" x="160" y="-533.3" font-family="Times,serif" font-size="14.00">product</text>
<text text-anchor="start" x="160" y="-518.3" font-family="Times,serif" font-size="14.00">research</text>
<text text-anchor="start" x="160" y="-503.3" font-family="Times,serif" font-size="14.00">sample_missions</text>
<text text-anchor="start" x="160" y="-488.3" font-family="Times,serif" font-size="14.00">show</text>
<polyline fill="none" stroke="black" points="152,-480.5 262,-480.5 "/>
<polyline fill="none" stroke="black" points="152,-456.5 262,-456.5 "/>
<text text-anchor="start" x="160" y="-441.3" font-family="Times,serif" font-size="14.00">_layout</text>
<text text-anchor="start" x="160" y="-426.3" font-family="Times,serif" font-size="14.00">set_layout</text>
</g>
<!-- Admin::UnitsController -->
<g id="node17" class="node"><title>Admin::UnitsController</title>
<path fill="none" stroke="black" d="M107,-646.5C107,-646.5 230,-646.5 230,-646.5 236,-646.5 242,-652.5 242,-658.5 242,-658.5 242,-802.5 242,-802.5 242,-808.5 236,-814.5 230,-814.5 230,-814.5 107,-814.5 107,-814.5 101,-814.5 95,-808.5 95,-802.5 95,-802.5 95,-658.5 95,-658.5 95,-652.5 101,-646.5 107,-646.5"/>
<text text-anchor="middle" x="168.5" y="-799.3" font-family="Times,serif" font-size="14.00">Admin::UnitsController</text>
<polyline fill="none" stroke="black" points="95,-791.5 242,-791.5 "/>
<text text-anchor="start" x="103" y="-776.3" font-family="Times,serif" font-size="14.00">create</text>
<text text-anchor="start" x="103" y="-761.3" font-family="Times,serif" font-size="14.00">edit</text>
<text text-anchor="start" x="103" y="-746.3" font-family="Times,serif" font-size="14.00">index</text>
<text text-anchor="start" x="103" y="-731.3" font-family="Times,serif" font-size="14.00">new</text>
<text text-anchor="start" x="103" y="-716.3" font-family="Times,serif" font-size="14.00">update</text>
<polyline fill="none" stroke="black" points="95,-708.5 242,-708.5 "/>
<polyline fill="none" stroke="black" points="95,-684.5 242,-684.5 "/>
<text text-anchor="start" x="103" y="-669.3" font-family="Times,serif" font-size="14.00">_layout</text>
<text text-anchor="start" x="103" y="-654.3" font-family="Times,serif" font-size="14.00">unit_params</text>
</g>
<!-- Admin::MissionsController -->
<g id="node18" class="node"><title>Admin::MissionsController</title>
<path fill="none" stroke="black" d="M1076,-741.5C1076,-741.5 1219,-741.5 1219,-741.5 1225,-741.5 1231,-747.5 1231,-753.5 1231,-753.5 1231,-912.5 1231,-912.5 1231,-918.5 1225,-924.5 1219,-924.5 1219,-924.5 1076,-924.5 1076,-924.5 1070,-924.5 1064,-918.5 1064,-912.5 1064,-912.5 1064,-753.5 1064,-753.5 1064,-747.5 1070,-741.5 1076,-741.5"/>
<text text-anchor="middle" x="1147.5" y="-909.3" font-family="Times,serif" font-size="14.00">Admin::MissionsController</text>
<polyline fill="none" stroke="black" points="1064,-901.5 1231,-901.5 "/>
<text text-anchor="start" x="1072" y="-886.3" font-family="Times,serif" font-size="14.00">create</text>
<text text-anchor="start" x="1072" y="-871.3" font-family="Times,serif" font-size="14.00">edit</text>
<text text-anchor="start" x="1072" y="-856.3" font-family="Times,serif" font-size="14.00">index</text>
<text text-anchor="start" x="1072" y="-841.3" font-family="Times,serif" font-size="14.00">new</text>
<text text-anchor="start" x="1072" y="-826.3" font-family="Times,serif" font-size="14.00">update</text>
<polyline fill="none" stroke="black" points="1064,-818.5 1231,-818.5 "/>
<polyline fill="none" stroke="black" points="1064,-794.5 1231,-794.5 "/>
<text text-anchor="start" x="1072" y="-779.3" font-family="Times,serif" font-size="14.00">_layout</text>
<text text-anchor="start" x="1072" y="-764.3" font-family="Times,serif" font-size="14.00">mission_params</text>
<text text-anchor="start" x="1072" y="-749.3" font-family="Times,serif" font-size="14.00">set_mission</text>
</g>
<!-- Admin::RiskAssessmentSafetiesController -->
<g id="node19" class="node"><title>Admin::RiskAssessmentSafetiesController</title>
<path fill="none" stroke="black" d="M791,-798.5C791,-798.5 1017,-798.5 1017,-798.5 1023,-798.5 1029,-804.5 1029,-810.5 1029,-810.5 1029,-1014.5 1029,-1014.5 1029,-1020.5 1023,-1026.5 1017,-1026.5 1017,-1026.5 791,-1026.5 791,-1026.5 785,-1026.5 779,-1020.5 779,-1014.5 779,-1014.5 779,-810.5 779,-810.5 779,-804.5 785,-798.5 791,-798.5"/>
<text text-anchor="middle" x="904" y="-1011.3" font-family="Times,serif" font-size="14.00">Admin::RiskAssessmentSafetiesController</text>
<polyline fill="none" stroke="black" points="779,-1003.5 1029,-1003.5 "/>
<text text-anchor="start" x="787" y="-988.3" font-family="Times,serif" font-size="14.00">create</text>
<text text-anchor="start" x="787" y="-973.3" font-family="Times,serif" font-size="14.00">destroy</text>
<text text-anchor="start" x="787" y="-958.3" font-family="Times,serif" font-size="14.00">edit</text>
<text text-anchor="start" x="787" y="-943.3" font-family="Times,serif" font-size="14.00">new</text>
<text text-anchor="start" x="787" y="-928.3" font-family="Times,serif" font-size="14.00">show</text>
<text text-anchor="start" x="787" y="-913.3" font-family="Times,serif" font-size="14.00">update</text>
<polyline fill="none" stroke="black" points="779,-905.5 1029,-905.5 "/>
<polyline fill="none" stroke="black" points="779,-881.5 1029,-881.5 "/>
<text text-anchor="start" x="787" y="-866.3" font-family="Times,serif" font-size="14.00">_layout</text>
<text text-anchor="start" x="787" y="-851.3" font-family="Times,serif" font-size="14.00">risk_assessment_safety_params</text>
<text text-anchor="start" x="787" y="-836.3" font-family="Times,serif" font-size="14.00">set_mission</text>
<text text-anchor="start" x="787" y="-821.3" font-family="Times,serif" font-size="14.00">set_risk_assessment</text>
<text text-anchor="start" x="787" y="-806.3" font-family="Times,serif" font-size="14.00">set_risk_assessment_safety</text>
</g>
<!-- Admin::QuestionsController -->
<g id="node20" class="node"><title>Admin::QuestionsController</title>
<path fill="none" stroke="black" d="M1038,-494.5C1038,-494.5 1186,-494.5 1186,-494.5 1192,-494.5 1198,-500.5 1198,-506.5 1198,-506.5 1198,-695.5 1198,-695.5 1198,-701.5 1192,-707.5 1186,-707.5 1186,-707.5 1038,-707.5 1038,-707.5 1032,-707.5 1026,-701.5 1026,-695.5 1026,-695.5 1026,-506.5 1026,-506.5 1026,-500.5 1032,-494.5 1038,-494.5"/>
<text text-anchor="middle" x="1112" y="-692.3" font-family="Times,serif" font-size="14.00">Admin::QuestionsController</text>
<polyline fill="none" stroke="black" points="1026,-684.5 1198,-684.5 "/>
<text text-anchor="start" x="1034" y="-669.3" font-family="Times,serif" font-size="14.00">create</text>
<text text-anchor="start" x="1034" y="-654.3" font-family="Times,serif" font-size="14.00">destroy</text>
<text text-anchor="start" x="1034" y="-639.3" font-family="Times,serif" font-size="14.00">edit</text>
<text text-anchor="start" x="1034" y="-624.3" font-family="Times,serif" font-size="14.00">index</text>
<text text-anchor="start" x="1034" y="-609.3" font-family="Times,serif" font-size="14.00">new</text>
<text text-anchor="start" x="1034" y="-594.3" font-family="Times,serif" font-size="14.00">update</text>
<polyline fill="none" stroke="black" points="1026,-586.5 1198,-586.5 "/>
<polyline fill="none" stroke="black" points="1026,-562.5 1198,-562.5 "/>
<text text-anchor="start" x="1034" y="-547.3" font-family="Times,serif" font-size="14.00">_layout</text>
<text text-anchor="start" x="1034" y="-532.3" font-family="Times,serif" font-size="14.00">question_params</text>
<text text-anchor="start" x="1034" y="-517.3" font-family="Times,serif" font-size="14.00">set_mission</text>
<text text-anchor="start" x="1034" y="-502.3" font-family="Times,serif" font-size="14.00">set_question</text>
</g>
<!-- Admin::SlidesController -->
<g id="node21" class="node"><title>Admin::SlidesController</title>
<path fill="none" stroke="black" d="M601,-798.5C601,-798.5 728,-798.5 728,-798.5 734,-798.5 740,-804.5 740,-810.5 740,-810.5 740,-1044.5 740,-1044.5 740,-1050.5 734,-1056.5 728,-1056.5 728,-1056.5 601,-1056.5 601,-1056.5 595,-1056.5 589,-1050.5 589,-1044.5 589,-1044.5 589,-810.5 589,-810.5 589,-804.5 595,-798.5 601,-798.5"/>
<text text-anchor="middle" x="664.5" y="-1041.3" font-family="Times,serif" font-size="14.00">Admin::SlidesController</text>
<polyline fill="none" stroke="black" points="589,-1033.5 740,-1033.5 "/>
<text text-anchor="start" x="597" y="-1018.3" font-family="Times,serif" font-size="14.00">create</text>
<text text-anchor="start" x="597" y="-1003.3" font-family="Times,serif" font-size="14.00">destroy</text>
<text text-anchor="start" x="597" y="-988.3" font-family="Times,serif" font-size="14.00">edit</text>
<text text-anchor="start" x="597" y="-973.3" font-family="Times,serif" font-size="14.00">index</text>
<text text-anchor="start" x="597" y="-958.3" font-family="Times,serif" font-size="14.00">new</text>
<text text-anchor="start" x="597" y="-943.3" font-family="Times,serif" font-size="14.00">sort</text>
<text text-anchor="start" x="597" y="-928.3" font-family="Times,serif" font-size="14.00">update</text>
<polyline fill="none" stroke="black" points="589,-920.5 740,-920.5 "/>
<polyline fill="none" stroke="black" points="589,-896.5 740,-896.5 "/>
<text text-anchor="start" x="597" y="-881.3" font-family="Times,serif" font-size="14.00">_layout</text>
<text text-anchor="start" x="597" y="-866.3" font-family="Times,serif" font-size="14.00">rocket_word_params</text>
<text text-anchor="start" x="597" y="-851.3" font-family="Times,serif" font-size="14.00">set_mission</text>
<text text-anchor="start" x="597" y="-836.3" font-family="Times,serif" font-size="14.00">set_presentation</text>
<text text-anchor="start" x="597" y="-821.3" font-family="Times,serif" font-size="14.00">set_slides</text>
<text text-anchor="start" x="597" y="-806.3" font-family="Times,serif" font-size="14.00">slide_params</text>
</g>
<!-- Admin::MissionPlansController -->
<g id="node22" class="node"><title>Admin::MissionPlansController</title>
<path fill="none" stroke="black" d="M810,-475.5C810,-475.5 977,-475.5 977,-475.5 983,-475.5 989,-481.5 989,-487.5 989,-487.5 989,-676.5 989,-676.5 989,-682.5 983,-688.5 977,-688.5 977,-688.5 810,-688.5 810,-688.5 804,-688.5 798,-682.5 798,-676.5 798,-676.5 798,-487.5 798,-487.5 798,-481.5 804,-475.5 810,-475.5"/>
<text text-anchor="middle" x="893.5" y="-673.3" font-family="Times,serif" font-size="14.00">Admin::MissionPlansController</text>
<polyline fill="none" stroke="black" points="798,-665.5 989,-665.5 "/>
<text text-anchor="start" x="806" y="-650.3" font-family="Times,serif" font-size="14.00">create</text>
<text text-anchor="start" x="806" y="-635.3" font-family="Times,serif" font-size="14.00">destroy</text>
<text text-anchor="start" x="806" y="-620.3" font-family="Times,serif" font-size="14.00">edit</text>
<text text-anchor="start" x="806" y="-605.3" font-family="Times,serif" font-size="14.00">new</text>
<text text-anchor="start" x="806" y="-590.3" font-family="Times,serif" font-size="14.00">show</text>
<text text-anchor="start" x="806" y="-575.3" font-family="Times,serif" font-size="14.00">update</text>
<polyline fill="none" stroke="black" points="798,-567.5 989,-567.5 "/>
<polyline fill="none" stroke="black" points="798,-543.5 989,-543.5 "/>
<text text-anchor="start" x="806" y="-528.3" font-family="Times,serif" font-size="14.00">_layout</text>
<text text-anchor="start" x="806" y="-513.3" font-family="Times,serif" font-size="14.00">mission_plan_params</text>
<text text-anchor="start" x="806" y="-498.3" font-family="Times,serif" font-size="14.00">set_mission</text>
<text text-anchor="start" x="806" y="-483.3" font-family="Times,serif" font-size="14.00">set_mission_plan</text>
</g>
<!-- Admin::RiskAssessmentsController -->
<g id="node23" class="node"><title>Admin::RiskAssessmentsController</title>
<path fill="none" stroke="black" d="M202,-209.5C202,-209.5 390,-209.5 390,-209.5 396,-209.5 402,-215.5 402,-221.5 402,-221.5 402,-350.5 402,-350.5 402,-356.5 396,-362.5 390,-362.5 390,-362.5 202,-362.5 202,-362.5 196,-362.5 190,-356.5 190,-350.5 190,-350.5 190,-221.5 190,-221.5 190,-215.5 196,-209.5 202,-209.5"/>
<text text-anchor="middle" x="296" y="-347.3" font-family="Times,serif" font-size="14.00">Admin::RiskAssessmentsController</text>
<polyline fill="none" stroke="black" points="190,-339.5 402,-339.5 "/>
<text text-anchor="start" x="198" y="-324.3" font-family="Times,serif" font-size="14.00">edit</text>
<text text-anchor="start" x="198" y="-309.3" font-family="Times,serif" font-size="14.00">update</text>
<polyline fill="none" stroke="black" points="190,-301.5 402,-301.5 "/>
<polyline fill="none" stroke="black" points="190,-277.5 402,-277.5 "/>
<text text-anchor="start" x="198" y="-262.3" font-family="Times,serif" font-size="14.00">_layout</text>
<text text-anchor="start" x="198" y="-247.3" font-family="Times,serif" font-size="14.00">risk_assessment_params</text>
<text text-anchor="start" x="198" y="-232.3" font-family="Times,serif" font-size="14.00">set_mission</text>
<text text-anchor="start" x="198" y="-217.3" font-family="Times,serif" font-size="14.00">set_risk_assessment</text>
</g>
<!-- Admin::RocketWordsController -->
<g id="node24" class="node"><title>Admin::RocketWordsController</title>
<path fill="none" stroke="black" d="M373,-912.5C373,-912.5 542,-912.5 542,-912.5 548,-912.5 554,-918.5 554,-924.5 554,-924.5 554,-1113.5 554,-1113.5 554,-1119.5 548,-1125.5 542,-1125.5 542,-1125.5 373,-1125.5 373,-1125.5 367,-1125.5 361,-1119.5 361,-1113.5 361,-1113.5 361,-924.5 361,-924.5 361,-918.5 367,-912.5 373,-912.5"/>
<text text-anchor="middle" x="457.5" y="-1110.3" font-family="Times,serif" font-size="14.00">Admin::RocketWordsController</text>
<polyline fill="none" stroke="black" points="361,-1102.5 554,-1102.5 "/>
<text text-anchor="start" x="369" y="-1087.3" font-family="Times,serif" font-size="14.00">create</text>
<text text-anchor="start" x="369" y="-1072.3" font-family="Times,serif" font-size="14.00">destroy</text>
<text text-anchor="start" x="369" y="-1057.3" font-family="Times,serif" font-size="14.00">edit</text>
<text text-anchor="start" x="369" y="-1042.3" font-family="Times,serif" font-size="14.00">index</text>
<text text-anchor="start" x="369" y="-1027.3" font-family="Times,serif" font-size="14.00">new</text>
<text text-anchor="start" x="369" y="-1012.3" font-family="Times,serif" font-size="14.00">update</text>
<polyline fill="none" stroke="black" points="361,-1004.5 554,-1004.5 "/>
<polyline fill="none" stroke="black" points="361,-980.5 554,-980.5 "/>
<text text-anchor="start" x="369" y="-965.3" font-family="Times,serif" font-size="14.00">_layout</text>
<text text-anchor="start" x="369" y="-950.3" font-family="Times,serif" font-size="14.00">rocket_word_params</text>
<text text-anchor="start" x="369" y="-935.3" font-family="Times,serif" font-size="14.00">set_mission</text>
<text text-anchor="start" x="369" y="-920.3" font-family="Times,serif" font-size="14.00">set_word</text>
</g>
<!-- Admin::RiskAssessmentApparatusController -->
<g id="node25" class="node"><title>Admin::RiskAssessmentApparatusController</title>
<path fill="none" stroke="black" d="M506,-532.5C506,-532.5 745,-532.5 745,-532.5 751,-532.5 757,-538.5 757,-544.5 757,-544.5 757,-748.5 757,-748.5 757,-754.5 751,-760.5 745,-760.5 745,-760.5 506,-760.5 506,-760.5 500,-760.5 494,-754.5 494,-748.5 494,-748.5 494,-544.5 494,-544.5 494,-538.5 500,-532.5 506,-532.5"/>
<text text-anchor="middle" x="625.5" y="-745.3" font-family="Times,serif" font-size="14.00">Admin::RiskAssessmentApparatusController</text>
<polyline fill="none" stroke="black" points="494,-737.5 757,-737.5 "/>
<text text-anchor="start" x="502" y="-722.3" font-family="Times,serif" font-size="14.00">create</text>
<text text-anchor="start" x="502" y="-707.3" font-family="Times,serif" font-size="14.00">destroy</text>
<text text-anchor="start" x="502" y="-692.3" font-family="Times,serif" font-size="14.00">edit</text>
<text text-anchor="start" x="502" y="-677.3" font-family="Times,serif" font-size="14.00">new</text>
<text text-anchor="start" x="502" y="-662.3" font-family="Times,serif" font-size="14.00">show</text>
<text text-anchor="start" x="502" y="-647.3" font-family="Times,serif" font-size="14.00">update</text>
<polyline fill="none" stroke="black" points="494,-639.5 757,-639.5 "/>
<polyline fill="none" stroke="black" points="494,-615.5 757,-615.5 "/>
<text text-anchor="start" x="502" y="-600.3" font-family="Times,serif" font-size="14.00">_layout</text>
<text text-anchor="start" x="502" y="-585.3" font-family="Times,serif" font-size="14.00">risk_assessment_apparatu_params</text>
<text text-anchor="start" x="502" y="-570.3" font-family="Times,serif" font-size="14.00">set_mission</text>
<text text-anchor="start" x="502" y="-555.3" font-family="Times,serif" font-size="14.00">set_risk_assessment</text>
<text text-anchor="start" x="502" y="-540.3" font-family="Times,serif" font-size="14.00">set_risk_assessment_apparatu</text>
</g>
<!-- Admin::AdminController -->
<g id="node26" class="node"><title>Admin::AdminController</title>
<path fill="none" stroke="black" d="M1266,-1121.5C1266,-1121.5 1398,-1121.5 1398,-1121.5 1404,-1121.5 1410,-1127.5 1410,-1133.5 1410,-1133.5 1410,-1202.5 1410,-1202.5 1410,-1208.5 1404,-1214.5 1398,-1214.5 1398,-1214.5 1266,-1214.5 1266,-1214.5 1260,-1214.5 1254,-1208.5 1254,-1202.5 1254,-1202.5 1254,-1133.5 1254,-1133.5 1254,-1127.5 1260,-1121.5 1266,-1121.5"/>
<text text-anchor="middle" x="1332" y="-1199.3" font-family="Times,serif" font-size="14.00">Admin::AdminController</text>
<polyline fill="none" stroke="black" points="1254,-1191.5 1410,-1191.5 "/>
<text text-anchor="start" x="1262" y="-1176.3" font-family="Times,serif" font-size="14.00">home</text>
<polyline fill="none" stroke="black" points="1254,-1168.5 1410,-1168.5 "/>
<polyline fill="none" stroke="black" points="1254,-1144.5 1410,-1144.5 "/>
<text text-anchor="start" x="1262" y="-1129.3" font-family="Times,serif" font-size="14.00">_layout</text>
</g>
<!-- Admin::StudyYearsController -->
<g id="node27" class="node"><title>Admin::StudyYearsController</title>
<path fill="none" stroke="black" d="M696,-1102.5C696,-1102.5 853,-1102.5 853,-1102.5 859,-1102.5 865,-1108.5 865,-1114.5 865,-1114.5 865,-1258.5 865,-1258.5 865,-1264.5 859,-1270.5 853,-1270.5 853,-1270.5 696,-1270.5 696,-1270.5 690,-1270.5 684,-1264.5 684,-1258.5 684,-1258.5 684,-1114.5 684,-1114.5 684,-1108.5 690,-1102.5 696,-1102.5"/>
<text text-anchor="middle" x="774.5" y="-1255.3" font-family="Times,serif" font-size="14.00">Admin::StudyYearsController</text>
<polyline fill="none" stroke="black" points="684,-1247.5 865,-1247.5 "/>
<text text-anchor="start" x="692" y="-1232.3" font-family="Times,serif" font-size="14.00">create</text>
<text text-anchor="start" x="692" y="-1217.3" font-family="Times,serif" font-size="14.00">edit</text>
<text text-anchor="start" x="692" y="-1202.3" font-family="Times,serif" font-size="14.00">index</text>
<text text-anchor="start" x="692" y="-1187.3" font-family="Times,serif" font-size="14.00">new</text>
<text text-anchor="start" x="692" y="-1172.3" font-family="Times,serif" font-size="14.00">update</text>
<polyline fill="none" stroke="black" points="684,-1164.5 865,-1164.5 "/>
<polyline fill="none" stroke="black" points="684,-1140.5 865,-1140.5 "/>
<text text-anchor="start" x="692" y="-1125.3" font-family="Times,serif" font-size="14.00">_layout</text>
<text text-anchor="start" x="692" y="-1110.3" font-family="Times,serif" font-size="14.00">study_year_params</text>
</g>
<!-- Admin::ResourcesController -->
<g id="node28" class="node"><title>Admin::ResourcesController</title>
<path fill="none" stroke="black" d="M1057,-1064.5C1057,-1064.5 1206,-1064.5 1206,-1064.5 1212,-1064.5 1218,-1070.5 1218,-1076.5 1218,-1076.5 1218,-1280.5 1218,-1280.5 1218,-1286.5 1212,-1292.5 1206,-1292.5 1206,-1292.5 1057,-1292.5 1057,-1292.5 1051,-1292.5 1045,-1286.5 1045,-1280.5 1045,-1280.5 1045,-1076.5 1045,-1076.5 1045,-1070.5 1051,-1064.5 1057,-1064.5"/>
<text text-anchor="middle" x="1131.5" y="-1277.3" font-family="Times,serif" font-size="14.00">Admin::ResourcesController</text>
<polyline fill="none" stroke="black" points="1045,-1269.5 1218,-1269.5 "/>
<text text-anchor="start" x="1053" y="-1254.3" font-family="Times,serif" font-size="14.00">create</text>
<text text-anchor="start" x="1053" y="-1239.3" font-family="Times,serif" font-size="14.00">destroy</text>
<text text-anchor="start" x="1053" y="-1224.3" font-family="Times,serif" font-size="14.00">edit</text>
<text text-anchor="start" x="1053" y="-1209.3" font-family="Times,serif" font-size="14.00">index</text>
<text text-anchor="start" x="1053" y="-1194.3" font-family="Times,serif" font-size="14.00">new</text>
<text text-anchor="start" x="1053" y="-1179.3" font-family="Times,serif" font-size="14.00">show</text>
<text text-anchor="start" x="1053" y="-1164.3" font-family="Times,serif" font-size="14.00">update</text>
<polyline fill="none" stroke="black" points="1045,-1156.5 1218,-1156.5 "/>
<polyline fill="none" stroke="black" points="1045,-1132.5 1218,-1132.5 "/>
<text text-anchor="start" x="1053" y="-1117.3" font-family="Times,serif" font-size="14.00">_layout</text>
<text text-anchor="start" x="1053" y="-1102.3" font-family="Times,serif" font-size="14.00">resource_params</text>
<text text-anchor="start" x="1053" y="-1087.3" font-family="Times,serif" font-size="14.00">set_mission</text>
<text text-anchor="start" x="1053" y="-1072.3" font-family="Times,serif" font-size="14.00">set_resource</text>
</g>
<!-- UsersController -->
<g id="node29" class="node"><title>UsersController</title>
<path fill="none" stroke="black" d="M221,-1064.5C221,-1064.5 316,-1064.5 316,-1064.5 322,-1064.5 328,-1070.5 328,-1076.5 328,-1076.5 328,-1250.5 328,-1250.5 328,-1256.5 322,-1262.5 316,-1262.5 316,-1262.5 221,-1262.5 221,-1262.5 215,-1262.5 209,-1256.5 209,-1250.5 209,-1250.5 209,-1076.5 209,-1076.5 209,-1070.5 215,-1064.5 221,-1064.5"/>
<text text-anchor="middle" x="268.5" y="-1247.3" font-family="Times,serif" font-size="14.00">UsersController</text>
<polyline fill="none" stroke="black" points="209,-1239.5 328,-1239.5 "/>
<text text-anchor="start" x="217" y="-1224.3" font-family="Times,serif" font-size="14.00">create</text>
<text text-anchor="start" x="217" y="-1209.3" font-family="Times,serif" font-size="14.00">edit</text>
<text text-anchor="start" x="217" y="-1194.3" font-family="Times,serif" font-size="14.00">new</text>
<text text-anchor="start" x="217" y="-1179.3" font-family="Times,serif" font-size="14.00">show</text>
<text text-anchor="start" x="217" y="-1164.3" font-family="Times,serif" font-size="14.00">update</text>
<polyline fill="none" stroke="black" points="209,-1156.5 328,-1156.5 "/>
<polyline fill="none" stroke="black" points="209,-1132.5 328,-1132.5 "/>
<text text-anchor="start" x="217" y="-1117.3" font-family="Times,serif" font-size="14.00">_layout</text>
<text text-anchor="start" x="217" y="-1102.3" font-family="Times,serif" font-size="14.00">require_same_user</text>
<text text-anchor="start" x="217" y="-1087.3" font-family="Times,serif" font-size="14.00">set_user</text>
<text text-anchor="start" x="217" y="-1072.3" font-family="Times,serif" font-size="14.00">user_params</text>
</g>
<!-- Api::ApiSlidesController -->
<g id="node30" class="node"><title>Api::ApiSlidesController</title>
<path fill="none" stroke="black" d="M1266,-1254.5C1266,-1254.5 1395,-1254.5 1395,-1254.5 1401,-1254.5 1407,-1260.5 1407,-1266.5 1407,-1266.5 1407,-1335.5 1407,-1335.5 1407,-1341.5 1401,-1347.5 1395,-1347.5 1395,-1347.5 1266,-1347.5 1266,-1347.5 1260,-1347.5 1254,-1341.5 1254,-1335.5 1254,-1335.5 1254,-1266.5 1254,-1266.5 1254,-1260.5 1260,-1254.5 1266,-1254.5"/>
<text text-anchor="middle" x="1330.5" y="-1332.3" font-family="Times,serif" font-size="14.00">Api::ApiSlidesController</text>
<polyline fill="none" stroke="black" points="1254,-1324.5 1407,-1324.5 "/>
<text text-anchor="start" x="1262" y="-1309.3" font-family="Times,serif" font-size="14.00">index</text>
<polyline fill="none" stroke="black" points="1254,-1301.5 1407,-1301.5 "/>
<polyline fill="none" stroke="black" points="1254,-1277.5 1407,-1277.5 "/>
<text text-anchor="start" x="1262" y="-1262.3" font-family="Times,serif" font-size="14.00">_layout</text>
</g>
<!-- Api::ApiStudyYearsController -->
<g id="node31" class="node"><title>Api::ApiStudyYearsController</title>
<path fill="none" stroke="black" d="M1133,-95.5C1133,-95.5 1292,-95.5 1292,-95.5 1298,-95.5 1304,-101.5 1304,-107.5 1304,-107.5 1304,-191.5 1304,-191.5 1304,-197.5 1298,-203.5 1292,-203.5 1292,-203.5 1133,-203.5 1133,-203.5 1127,-203.5 1121,-197.5 1121,-191.5 1121,-191.5 1121,-107.5 1121,-107.5 1121,-101.5 1127,-95.5 1133,-95.5"/>
<text text-anchor="middle" x="1212.5" y="-188.3" font-family="Times,serif" font-size="14.00">Api::ApiStudyYearsController</text>
<polyline fill="none" stroke="black" points="1121,-180.5 1304,-180.5 "/>
<text text-anchor="start" x="1129" y="-165.3" font-family="Times,serif" font-size="14.00">index</text>
<text text-anchor="start" x="1129" y="-150.3" font-family="Times,serif" font-size="14.00">show</text>
<polyline fill="none" stroke="black" points="1121,-142.5 1304,-142.5 "/>
<polyline fill="none" stroke="black" points="1121,-118.5 1304,-118.5 "/>
<text text-anchor="start" x="1129" y="-103.3" font-family="Times,serif" font-size="14.00">_layout</text>
</g>
<!-- Api::ApiPresentationsController -->
<g id="node32" class="node"><title>Api::ApiPresentationsController</title>
<path fill="none" stroke="black" d="M1247,-247.5C1247,-247.5 1415,-247.5 1415,-247.5 1421,-247.5 1427,-253.5 1427,-259.5 1427,-259.5 1427,-328.5 1427,-328.5 1427,-334.5 1421,-340.5 1415,-340.5 1415,-340.5 1247,-340.5 1247,-340.5 1241,-340.5 1235,-334.5 1235,-328.5 1235,-328.5 1235,-259.5 1235,-259.5 1235,-253.5 1241,-247.5 1247,-247.5"/>
<text text-anchor="middle" x="1331" y="-325.3" font-family="Times,serif" font-size="14.00">Api::ApiPresentationsController</text>
<polyline fill="none" stroke="black" points="1235,-317.5 1427,-317.5 "/>
<text text-anchor="start" x="1243" y="-302.3" font-family="Times,serif" font-size="14.00">index</text>
<polyline fill="none" stroke="black" points="1235,-294.5 1427,-294.5 "/>
<polyline fill="none" stroke="black" points="1235,-270.5 1427,-270.5 "/>
<text text-anchor="start" x="1243" y="-255.3" font-family="Times,serif" font-size="14.00">_layout</text>
</g>
<!-- Api::ApiLessonsController -->
<g id="node33" class="node"><title>Api::ApiLessonsController</title>
<path fill="none" stroke="black" d="M1247,-380.5C1247,-380.5 1387,-380.5 1387,-380.5 1393,-380.5 1399,-386.5 1399,-392.5 1399,-392.5 1399,-476.5 1399,-476.5 1399,-482.5 1393,-488.5 1387,-488.5 1387,-488.5 1247,-488.5 1247,-488.5 1241,-488.5 1235,-482.5 1235,-476.5 1235,-476.5 1235,-392.5 1235,-392.5 1235,-386.5 1241,-380.5 1247,-380.5"/>
<text text-anchor="middle" x="1317" y="-473.3" font-family="Times,serif" font-size="14.00">Api::ApiLessonsController</text>
<polyline fill="none" stroke="black" points="1235,-465.5 1399,-465.5 "/>
<text text-anchor="start" x="1243" y="-450.3" font-family="Times,serif" font-size="14.00">index</text>
<text text-anchor="start" x="1243" y="-435.3" font-family="Times,serif" font-size="14.00">show</text>
<polyline fill="none" stroke="black" points="1235,-427.5 1399,-427.5 "/>
<polyline fill="none" stroke="black" points="1235,-403.5 1399,-403.5 "/>
<text text-anchor="start" x="1243" y="-388.3" font-family="Times,serif" font-size="14.00">_layout</text>
</g>
<!-- Api::ApiUnitsController -->
<g id="node34" class="node"><title>Api::ApiUnitsController</title>
<path fill="none" stroke="black" d="M886,-0.5C886,-0.5 1011,-0.5 1011,-0.5 1017,-0.5 1023,-6.5 1023,-12.5 1023,-12.5 1023,-81.5 1023,-81.5 1023,-87.5 1017,-93.5 1011,-93.5 1011,-93.5 886,-93.5 886,-93.5 880,-93.5 874,-87.5 874,-81.5 874,-81.5 874,-12.5 874,-12.5 874,-6.5 880,-0.5 886,-0.5"/>
<text text-anchor="middle" x="948.5" y="-78.3" font-family="Times,serif" font-size="14.00">Api::ApiUnitsController</text>
<polyline fill="none" stroke="black" points="874,-70.5 1023,-70.5 "/>
<text text-anchor="start" x="882" y="-55.3" font-family="Times,serif" font-size="14.00">index</text>
<polyline fill="none" stroke="black" points="874,-47.5 1023,-47.5 "/>
<polyline fill="none" stroke="black" points="874,-23.5 1023,-23.5 "/>
<text text-anchor="start" x="882" y="-8.3" font-family="Times,serif" font-size="14.00">_layout</text>
</g>
<!-- PupilController -->
<g id="node35" class="node"><title>PupilController</title>
<path fill="none" stroke="black" d="M31,-494.5C31,-494.5 108,-494.5 108,-494.5 114,-494.5 120,-500.5 120,-506.5 120,-506.5 120,-606.5 120,-606.5 120,-612.5 114,-618.5 108,-618.5 108,-618.5 31,-618.5 31,-618.5 25,-618.5 19,-612.5 19,-606.5 19,-606.5 19,-506.5 19,-506.5 19,-500.5 25,-494.5 31,-494.5"/>
<text text-anchor="middle" x="69.5" y="-603.3" font-family="Times,serif" font-size="14.00">PupilController</text>
<polyline fill="none" stroke="black" points="19,-595.5 120,-595.5 "/>
<polyline fill="none" stroke="black" points="19,-571.5 120,-571.5 "/>
<polyline fill="none" stroke="black" points="19,-547.5 120,-547.5 "/>
<text text-anchor="start" x="27" y="-532.3" font-family="Times,serif" font-size="14.00">_layout</text>
<text text-anchor="start" x="27" y="-517.3" font-family="Times,serif" font-size="14.00">require_pupil</text>
<text text-anchor="start" x="27" y="-502.3" font-family="Times,serif" font-size="14.00">set_school</text>
</g>
<!-- Pupil::LessonsController -->
<g id="node36" class="node"><title>Pupil::LessonsController</title>
<path fill="none" stroke="black" d="M1247,-532.5C1247,-532.5 1375,-532.5 1375,-532.5 1381,-532.5 1387,-538.5 1387,-544.5 1387,-544.5 1387,-643.5 1387,-643.5 1387,-649.5 1381,-655.5 1375,-655.5 1375,-655.5 1247,-655.5 1247,-655.5 1241,-655.5 1235,-649.5 1235,-643.5 1235,-643.5 1235,-544.5 1235,-544.5 1235,-538.5 1241,-532.5 1247,-532.5"/>
<text text-anchor="middle" x="1311" y="-640.3" font-family="Times,serif" font-size="14.00">Pupil::LessonsController</text>
<polyline fill="none" stroke="black" points="1235,-632.5 1387,-632.5 "/>
<text text-anchor="start" x="1243" y="-617.3" font-family="Times,serif" font-size="14.00">big_preview</text>
<text text-anchor="start" x="1243" y="-602.3" font-family="Times,serif" font-size="14.00">index</text>
<text text-anchor="start" x="1243" y="-587.3" font-family="Times,serif" font-size="14.00">show</text>
<polyline fill="none" stroke="black" points="1235,-579.5 1387,-579.5 "/>
<polyline fill="none" stroke="black" points="1235,-555.5 1387,-555.5 "/>
<text text-anchor="start" x="1243" y="-540.3" font-family="Times,serif" font-size="14.00">_layout</text>
</g>
<!-- Pupil::QuizzesController -->
<g id="node37" class="node"><title>Pupil::QuizzesController</title>
<path fill="none" stroke="black" d="M696,-57.5C696,-57.5 824,-57.5 824,-57.5 830,-57.5 836,-63.5 836,-69.5 836,-69.5 836,-213.5 836,-213.5 836,-219.5 830,-225.5 824,-225.5 824,-225.5 696,-225.5 696,-225.5 690,-225.5 684,-219.5 684,-213.5 684,-213.5 684,-69.5 684,-69.5 684,-63.5 690,-57.5 696,-57.5"/>
<text text-anchor="middle" x="760" y="-210.3" font-family="Times,serif" font-size="14.00">Pupil::QuizzesController</text>
<polyline fill="none" stroke="black" points="684,-202.5 836,-202.5 "/>
<text text-anchor="start" x="692" y="-187.3" font-family="Times,serif" font-size="14.00">question</text>
<text text-anchor="start" x="692" y="-172.3" font-family="Times,serif" font-size="14.00">start_quiz</text>
<text text-anchor="start" x="692" y="-157.3" font-family="Times,serif" font-size="14.00">submit_answer</text>
<polyline fill="none" stroke="black" points="684,-149.5 836,-149.5 "/>
<polyline fill="none" stroke="black" points="684,-125.5 836,-125.5 "/>
<text text-anchor="start" x="692" y="-110.3" font-family="Times,serif" font-size="14.00">_layout</text>
<text text-anchor="start" x="692" y="-95.3" font-family="Times,serif" font-size="14.00">confirm_started</text>
<text text-anchor="start" x="692" y="-80.3" font-family="Times,serif" font-size="14.00">set_attempt</text>
<text text-anchor="start" x="692" y="-65.3" font-family="Times,serif" font-size="14.00">set_lesson</text>
</g>
<!-- Pupil::AchievementsController -->
<g id="node38" class="node"><title>Pupil::AchievementsController</title>
<path fill="none" stroke="black" d="M50,-57.5C50,-57.5 212,-57.5 212,-57.5 218,-57.5 224,-63.5 224,-69.5 224,-69.5 224,-153.5 224,-153.5 224,-159.5 218,-165.5 212,-165.5 212,-165.5 50,-165.5 50,-165.5 44,-165.5 38,-159.5 38,-153.5 38,-153.5 38,-69.5 38,-69.5 38,-63.5 44,-57.5 50,-57.5"/>
<text text-anchor="middle" x="131" y="-150.3" font-family="Times,serif" font-size="14.00">Pupil::AchievementsController</text>
<polyline fill="none" stroke="black" points="38,-142.5 224,-142.5 "/>
<text text-anchor="start" x="46" y="-127.3" font-family="Times,serif" font-size="14.00">index</text>
<text text-anchor="start" x="46" y="-112.3" font-family="Times,serif" font-size="14.00">set_avatar</text>
<polyline fill="none" stroke="black" points="38,-104.5 224,-104.5 "/>
<polyline fill="none" stroke="black" points="38,-80.5 224,-80.5 "/>
<text text-anchor="start" x="46" y="-65.3" font-family="Times,serif" font-size="14.00">_layout</text>
</g>
<!-- Pupil::PupilController -->
<g id="node39" class="node"><title>Pupil::PupilController</title>
<path fill="none" stroke="black" d="M50,-1235.5C50,-1235.5 163,-1235.5 163,-1235.5 169,-1235.5 175,-1241.5 175,-1247.5 175,-1247.5 175,-1376.5 175,-1376.5 175,-1382.5 169,-1388.5 163,-1388.5 163,-1388.5 50,-1388.5 50,-1388.5 44,-1388.5 38,-1382.5 38,-1376.5 38,-1376.5 38,-1247.5 38,-1247.5 38,-1241.5 44,-1235.5 50,-1235.5"/>
<text text-anchor="middle" x="106.5" y="-1373.3" font-family="Times,serif" font-size="14.00">Pupil::PupilController</text>
<polyline fill="none" stroke="black" points="38,-1365.5 175,-1365.5 "/>
<text text-anchor="start" x="46" y="-1350.3" font-family="Times,serif" font-size="14.00">charts</text>
<text text-anchor="start" x="46" y="-1335.3" font-family="Times,serif" font-size="14.00">home</text>
<text text-anchor="start" x="46" y="-1320.3" font-family="Times,serif" font-size="14.00">library</text>
<text text-anchor="start" x="46" y="-1305.3" font-family="Times,serif" font-size="14.00">my_class</text>
<text text-anchor="start" x="46" y="-1290.3" font-family="Times,serif" font-size="14.00">set_avatar</text>
<polyline fill="none" stroke="black" points="38,-1282.5 175,-1282.5 "/>
<polyline fill="none" stroke="black" points="38,-1258.5 175,-1258.5 "/>
<text text-anchor="start" x="46" y="-1243.3" font-family="Times,serif" font-size="14.00">_layout</text>
</g>
</g>
</svg>
